Data Journalism with R - 12 Text Analysis
…
19.2 Analyze Top Words

# Get top 10 words for each candidate
top_words <- word_counts %>%
  group_by(speaker) %>%
  top_n(10, n) %>%
  ungroup() %>%
  arrange(speaker, -n)

# View the result
print(top_words)

# A tibble: 22 × 3
   speaker word           n
   <chr>   <chr>      <int>
 1 Harris  president     56
 2 Harris  people        48
 3 Harris  donald        32
 4 Harris  trump         31
 5 Harris  american      27
 6 Harris  united        21
 7 Harris  plan          20
 8 Harris  understand    18
 9 Harris  care          14
10 Harris  talk          14
# ℹ 12 more rows
…
# Get top 10 bigrams for each candidate
top_bigrams <- bigram_counts %>%
  group_by(speaker) %>%
  top_n(10, n) %>%
  ungroup() %>%
  arrange(speaker, -n)

# View the result
print(top_bigrams)

# A tibble: 23 × 3
   speaker bigram                n
   <chr>   <chr>             <int>
 1 Harris  donald trump         26
 2 Harris  american people      18
 3 Harris  vice president       11
 4 Harris  affordable care       7
 5 Harris  care act              7
 6 Harris  donald trump's        6
 7 Harris  health care           5
 8 Harris  middle class          5
 9 Harris  national security     5
10 Harris  trump left            4
# ℹ 13 more rows
…
